2017-03-09T14:51:13.994 : removeOrder: 1868
2017-03-10T11:53:02.597 : removeOrder: 1870
2017-03-10T11:53:02.602 : createOrder: 1870Order Number 1870 |Customer Name: Jared |State: NH |Tax Rate : 0.00 |Product Type: Wood |Area: 127.00 |labor Cost Per Square Foot: 755.00 |Cost Per Square Foot: 2865.00 |Material Cost: 363855.00 |Labor Cost: 95885.00 |tax: 6436360.00 |total: 6896100.00 |Order Date: 2016-01-02
2017-03-10T11:53:47.475 : removeOrder: 1870
2017-03-10T12:15:23.510 : createOrder: 251Order Number 251 |Customer Name: Jared |State: MA |Tax Rate : 0.00 |Product Type: Burlap  |Area: 100.00 |labor Cost Per Square Foot: 10.00 |Cost Per Square Foot: 43.00 |Material Cost: 4300.00 |Labor Cost: 1000.00 |tax: 0.00 |total: 5300.00 |Order Date: 2001-01-01
2017-03-10T12:25:36.717 : createOrder: 252Order Number 252 |Customer Name: Jared Greenblatt |State: MA |Tax Rate : 0.00 |Product Type: Marmite |Area: 8675309.00 |labor Cost Per Square Foot: 28.00 |Cost Per Square Foot: 30.00 |Material Cost: 260259270.00 |Labor Cost: 242908652.00 |tax: 0.00 |total: 503167922.00 |Order Date: 1990-07-03
2017-03-11T09:20:34.496 : createOrder: 253Order Number 253 |Customer Name: Dan |State: KY |Tax Rate : 19.00 |Product Type: Marmite |Area: 21.00 |labor Cost Per Square Foot: 28.00 |Cost Per Square Foot: 30.00 |Material Cost: 630.00 |Labor Cost: 588.00 |tax: 231.42 |total: 1449.42 |Order Date: 1999-03-10
2017-03-13T11:27:24.217 : createOrder: 254Order Number 254 |Customer Name: Jared |State: DC |Tax Rate : 10.00 |Product Type: Burlap |Area: 999.00 |labor Cost Per Square Foot: 10.00 |Cost Per Square Foot: 43.00 |Material Cost: 42957.00 |Labor Cost: 9990.00 |tax: 5294.70 |total: 58241.70 |Order Date: 1957-07-03
2017-03-13T11:29:21.316 : createOrder: 255Order Number 255 |Customer Name: jared,Jared |State: MA |Tax Rate : 0.00 |Product Type: Burlap |Area: 999.00 |labor Cost Per Square Foot: 10.00 |Cost Per Square Foot: 43.00 |Material Cost: 42957.00 |Labor Cost: 9990.00 |tax: 0.00 |total: 52947.00 |Order Date: 1901-07-01
2017-03-13T11:40:25.519 : createOrder: 251Order Number 251 |Customer Name: Jeff |State: PA |Tax Rate : 19.00 |Product Type: Burlap |Area: 19999.00 |labor Cost Per Square Foot: 10.00 |Cost Per Square Foot: 43.00 |Material Cost: 859957.00 |Labor Cost: 199990.00 |tax: 201389.93 |total: 1261336.93 |Order Date: 1990-07-03
2017-03-13T11:41:15.532 : removeOrder: 39
2017-03-13T15:45:11.646 : removeOrder: 209
2017-03-13T15:45:57.311 : createOrder: 252Order Number 252 |Customer Name: Jared |State: NH |Tax Rate : 3.00 |Product Type: Burlap |Area: 1000.00 |labor Cost Per Square Foot: 10.00 |Cost Per Square Foot: 43.00 |Material Cost: 43000.00 |Labor Cost: 10000.00 |tax: 1590.00 |total: 54590.00 |Order Date: 2019-01-01
