DE, 17.00
HI, 22.00
PR, 20.00
TX, 3.00
PW, 24.00
MA, 0.00
MD, 16.00
IA, 16.00
ME, 19.00
ID, 2.00
MH, 2.00
MI, 10.00
UT, 15.00
MN, 10.00
MO, 11.00
IL, 0.00
MP, 4.00
IN, 16.00
MS, 10.00
MT, 7.00
VA, 19.00
AR, 7.00
AS, 13.00
VI, 20.00
NC, 9.00
ND, 2.00
NE, 12.00
RI, 10.00
AZ, 6.00
NH, 3.00
NJ, 0.00
VT, 16.00
NM, 20.00
FL, 15.00
FM, 5.00
NV, 4.00
WA, 16.00
NY, 24.00
SC, 18.00
SD, 16.00
WI, 5.00
OH, 5.00
GA, 9.00
OK, 15.00
CA, 23.00
WV, 0.00
WY, 4.00
OR, 21.00
KS, 16.00
CO, 1.00
GU, 24.00
KY, 19.00
CT, 13.00
PA, 19.00
LA, 18.00
TN, 16.00
DC, 10.00
