2017-03-05T20:11:43.579 : VendingItem com.sg.vendingmachine.service.VendingMachineServiceLayer.PurchaseItem(VendingItem)
2017-03-05T20:11:43.646 : PurchaseItem ERROR!
2017-03-05T20:11:43.646 : ERROR: you have insufficient funds to purchase Gummy Worms.
2017-03-05T20:11:57.980 : VendingItem com.sg.vendingmachine.service.VendingMachineServiceLayer.PurchaseItem(VendingItem)
2017-03-05T20:11:57.981 : PurchaseItem: ID: V5 |ItemName: Gummy Worms  |itemCost: 3.68 |Items in Inventory 7
2017-03-05T20:22:11.934 : PurchaseItem
2017-03-05T20:22:12.002 : PurchaseItem: ID: V4 |ItemName: Ice Cream  |itemCost: 4.26 |Items in Inventory 28
2017-03-05T20:26:16.234 : PurchaseItem: ID: V2 |ItemName: Sweedish Fish  |itemCost: 3.11 |Items in Inventory 10
2017-03-05T20:26:16.301 : PurchaseItem: ID: V2 |ItemName: Sweedish Fish  |itemCost: 3.11 |Items in Inventory 10
2017-03-05T20:29:34.137 : PurchaseItem: ID: V5 |ItemName: Gummy Worms  |itemCost: 3.68 |Items in Inventory 7
2017-03-05T20:29:34.204 : editVendingItem: ID: V5 |ItemName: Gummy Worms  |itemCost: 3.68 |Items in Inventory 6
2017-03-05T20:32:46.171 : setrunningTotal: 99.99
2017-03-05T20:34:43.684 : setrunningTotal: 99.00
2017-03-05T20:34:49.583 : makeChange: 
2017-03-05T20:37:35.607 : setrunningTotal: 55.00
2017-03-05T20:38:16.466 : PurchaseItem: ID: V4 |ItemName: Ice Cream  |itemCost: 4.26 |Items in Inventory 28
2017-03-05T20:38:16.466 : editVendingItem: ID: V4 |ItemName: Ice Cream  |itemCost: 4.26 |Items in Inventory 27
2017-03-05T20:38:43.305 : getVendingItem ERROR!
2017-03-05T20:38:43.305 : ERROR: Item you chose to vend does not exist. V777.
2017-03-05T20:39:00.528 : getVendingItem ERROR!
2017-03-05T20:39:00.528 : ERROR: Item you chose to vend does not exist. V53.
2017-03-05T20:39:12.846 : PurchaseItem: ID: V4 |ItemName: Ice Cream  |itemCost: 4.26 |Items in Inventory 27
2017-03-05T20:39:12.847 : PurchaseItem ERROR!
2017-03-05T20:39:12.847 : ERROR: you have insufficient funds to purchase Ice Cream.
2017-03-05T20:39:22.462 : setrunningTotal: 44.00
2017-03-05T20:39:24.566 : PurchaseItem: ID: V1 |ItemName:  Starburst  |itemCost: 2.75 |Items in Inventory 0
2017-03-05T20:39:24.566 : PurchaseItem ERROR!
2017-03-05T20:39:24.566 : ERROR: No Item remains in Inventory we will need to reorder  Starburst.
2017-03-05T20:39:49.305 : PurchaseItem: ID: V3 |ItemName: Gold Fish  |itemCost: 2.48 |Items in Inventory 11
2017-03-05T20:39:49.306 : editVendingItem: ID: V3 |ItemName: Gold Fish  |itemCost: 2.48 |Items in Inventory 10
2017-03-05T20:55:57.088 : setrunningTotal: 55.00
2017-03-05T20:56:03.887 : PurchaseItem: ID: V5 |ItemName: Gummy Worms  |itemCost: 3.68 |Items in Inventory 7
2017-03-05T20:56:03.887 : editVendingItem: ID: V5 |ItemName: Gummy Worms  |itemCost: 3.68 |Items in Inventory 6
2017-03-06T13:02:04.244 : getVendingItem ERROR!
2017-03-06T13:02:04.299 : ERROR: Item you chose to vend does not exist. V7777777777.
2017-03-06T13:02:21.368 : PurchaseItem: ID: V1 |ItemName:  Starburst  |itemCost: 2.75 |Items in Inventory 0
2017-03-06T13:02:21.368 : PurchaseItem ERROR!
2017-03-06T13:02:21.368 : ERROR: No Item remains in Inventory we will need to reorder  Starburst.
2017-03-06T13:02:36.191 : setrunningTotal: 1.00
2017-03-06T13:02:39.597 : PurchaseItem: ID: V2 |ItemName: Sweedish Fish  |itemCost: 3.11 |Items in Inventory 10
2017-03-06T13:02:39.598 : PurchaseItem ERROR!
2017-03-06T13:02:39.598 : ERROR: you have insufficient funds to purchase Sweedish Fish.
2017-03-06T13:02:51.617 : setrunningTotal: 4.00
2017-03-06T13:02:56.325 : PurchaseItem: ID: V2 |ItemName: Sweedish Fish  |itemCost: 3.11 |Items in Inventory 10
2017-03-06T13:02:56.326 : editVendingItem: ID: V2 |ItemName: Sweedish Fish  |itemCost: 3.11 |Items in Inventory 9
2017-03-07T21:12:03.803 : getVendingItem ERROR!
2017-03-07T21:12:03.858 : ERROR: Item you chose to vend does not exist. V555.
2017-03-07T21:12:09.193 : setrunningTotal: 1.00
2017-03-07T21:12:18.513 : PurchaseItem: ID: V1 |ItemName:  Starburst  |itemCost: 2.75 |Items in Inventory 0
2017-03-07T21:12:18.513 : PurchaseItem ERROR!
2017-03-07T21:12:18.513 : ERROR: No Item remains in Inventory we will need to reorder  Starburst.
2017-03-07T21:12:22.920 : PurchaseItem: ID: V2 |ItemName: Sweedish Fish  |itemCost: 3.11 |Items in Inventory 9
2017-03-07T21:12:22.920 : PurchaseItem ERROR!
2017-03-07T21:12:22.920 : ERROR: you have insufficient funds to purchase Sweedish Fish.
2017-03-07T21:12:33.436 : setrunningTotal: 5.00
2017-03-07T21:12:35.239 : PurchaseItem: ID: V1 |ItemName:  Starburst  |itemCost: 2.75 |Items in Inventory 0
2017-03-07T21:12:35.240 : PurchaseItem ERROR!
2017-03-07T21:12:35.240 : ERROR: No Item remains in Inventory we will need to reorder  Starburst.
2017-03-07T21:12:37.242 : PurchaseItem: ID: V2 |ItemName: Sweedish Fish  |itemCost: 3.11 |Items in Inventory 9
2017-03-07T21:12:37.243 : editVendingItem: ID: V2 |ItemName: Sweedish Fish  |itemCost: 3.11 |Items in Inventory 8
