/home/apprentice/Documents/Jared/jared-greenblatt-individual-work/VendingMachine/src/main/java/com/sg/vendingmachine/ui/VendingMachineView.java
/home/apprentice/Documents/Jared/jared-greenblatt-individual-work/VendingMachine/src/main/java/com/sg/vendingmachine/service/VendingMachineServiceLayerImpl.java
/home/apprentice/Documents/Jared/jared-greenblatt-individual-work/VendingMachine/src/main/java/com/sg/vendingmachine/ui/UserIOConsoleImpl.java
/home/apprentice/Documents/Jared/jared-greenblatt-individual-work/VendingMachine/src/main/java/com/sg/vendingmachine/controller/VendingMachineController.java
/home/apprentice/Documents/Jared/jared-greenblatt-individual-work/VendingMachine/src/main/java/com/sg/vendingmachine/dto/Change.java
/home/apprentice/Documents/Jared/jared-greenblatt-individual-work/VendingMachine/src/main/java/com/sg/vendingmachine/dao/VendingMachineDao.java
/home/apprentice/Documents/Jared/jared-greenblatt-individual-work/VendingMachine/src/main/java/com/sg/vendingmachine/App.java
/home/apprentice/Documents/Jared/jared-greenblatt-individual-work/VendingMachine/src/main/java/com/sg/vendingmachine/service/NoItemInventoryException.java
/home/apprentice/Documents/Jared/jared-greenblatt-individual-work/VendingMachine/src/main/java/com/sg/vendingmachine/service/ItemDoesNotExistException.java
/home/apprentice/Documents/Jared/jared-greenblatt-individual-work/VendingMachine/src/main/java/com/sg/vendingmachine/service/VendingMachineDataValidationException.java
/home/apprentice/Documents/Jared/jared-greenblatt-individual-work/VendingMachine/src/main/java/com/sg/vendingmachine/dao/VendingMachinePersistenceException.java
/home/apprentice/Documents/Jared/jared-greenblatt-individual-work/VendingMachine/src/main/java/com/sg/vendingmachine/service/VendingMachineServiceLayer.java
/home/apprentice/Documents/Jared/jared-greenblatt-individual-work/VendingMachine/src/main/java/com/sg/vendingmachine/dao/VendingMachineDaoImpl.java
/home/apprentice/Documents/Jared/jared-greenblatt-individual-work/VendingMachine/src/main/java/com/sg/vendingmachine/service/InsufficientFundsException.java
/home/apprentice/Documents/Jared/jared-greenblatt-individual-work/VendingMachine/src/main/java/com/sg/vendingmachine/dto/VendingItem.java
/home/apprentice/Documents/Jared/jared-greenblatt-individual-work/VendingMachine/src/main/java/com/sg/vendingmachine/dao/VendingMachinDaoStubImpl.java
/home/apprentice/Documents/Jared/jared-greenblatt-individual-work/VendingMachine/src/main/java/com/sg/vendingmachine/ui/UserIO.java
