-------------------------------------------------------------------------------
Test set: balloonblog.dao.AuthorDaoTest
-------------------------------------------------------------------------------
Tests run: 5, Failures: 0, Errors: 0, Skipped: 0, Time elapsed: 1.092 sec
