-------------------------------------------------------------------------------
Test set: balloonblog.dao.TagDaoTest
-------------------------------------------------------------------------------
Tests run: 5, Failures: 0, Errors: 0, Skipped: 0, Time elapsed: 0.775 sec
