-------------------------------------------------------------------------------
Test set: balloonblog.dao.BlogDaoTest
-------------------------------------------------------------------------------
Tests run: 5, Failures: 0, Errors: 0, Skipped: 0, Time elapsed: 1.221 sec
