-------------------------------------------------------------------------------
Test set: com.sg.superheros.dao.SightingDaoTest
-------------------------------------------------------------------------------
Tests run: 10, Failures: 0, Errors: 0, Skipped: 0, Time elapsed: 3.837 sec
